{
    "verbo": [  
                "SR",
                "SR-F",
                "SR-I",
                "SR-P",
                "SR-SP",
                "SR-D",
                "SR-RA",
                "SR-SD",
                "SR-R",
                "SR-SR",
                "SR-G",
                "SR-PP",
                "HV",
                "HV-F",
                "HV-I",
                "HV-P",
                "HV-SP",
                "HV-D",
                "HV-RA",
                "HV-SD",
                "HV-R",
                "HV-SR",
                "HV-G",
                "HV-PP",
                "HV-NA",
                "ET",
                "ET-F",
                "ET-I",
                "ET-P",
                "ET-SP",
                "ET-D",
                "ET-RA",
                "ET-SD",
                "ET-R",
                "ET-SR",
                "ET-G",
                "ET-PP",
                "TR",
                "TR-F",
                "TR-I",
                "TR-P",
                "TR-SP",
                "TR-D",
                "TR-RA",
                "TR-SD",
                "TR-R",
                "TR-SR",
                "TR-G",
                "TR-PP",
                "TR-NA",
                "VB",
                "VB-F",
                "VB-I",
                "VB-P",
                "VC-SP",
                "VB-D",
                "VB-RA",
                "VB-SD",
                "VB-R",
                "VB-SR",
                "VB-G",
                "VB-PP",
                "VB-AN",
                "VB-AN-F"
            ],

    "verboinf": [
                "SR",
                "HV",
                "ET",
                "TR",
                "VB"
            ],

    "substantivo": [
                "N",
                "N-P",
                "NPR",
                "NPR-P"
            ],

    "pronome": [
                    "PRO",
                    "P+PRO",
                    "PRO$",
                    "PRO$-F",
                    "PRO$-P",
                    "PRO$-P-F"
                ],

    "artigo": [
                "D",
                "D-F",
                "D-P",
                "D-F-P",
                "D-G",
                "D-G-P",
                "D-UM",
                "D-UM-F",
                "D-UM-P",
                "D-UM-F-P"
              ],

    "adjetivo": [
                    "ADJ",
                    "ADJ-F",
                    "ADJ-G",
                    "ADJ-P",
                    "ADJ-F-P",
                    "ADJ-G-P",
                    "ADJ-R",
                    "ADJ-R-F",
                    "ADJ-R-P",
                    "ADJ-R-F-P",
                    "ADJ-R-G",
                    "ADJ-R-G-P",
                    "ADJ-S",
                    "ADJ-S-F",
                    "ADJ-S-P",
                    "ADJ-S-F-P"
                ],

    "adverbio": [
                    "ADV",
                    "ADV-R",
                    "ADV-S",
                    "ADV-NEG"
                ],
    
    "quantificador": [
                        "Q",
                        "Q-F",
                        "Q-P",
                        "Q-F-P",
                        "Q-G",
                        "Q-G-P",
                        "Q-NEG",
                        "Q-NEG-P",
                        "Q-NEG-F",
                        "Q-NEG-F-P"
                     ],

    "conjuncao": [
                    "CONJ",
                    "CONJ-NEG",
                    "C",
                    "Various"
                 ],

    "preposicao": [
                    "P",
                    "P+D",
                    "P+D-P",
                    "P+D-F",
                    "P+D-F-P",
                    "P+D-UM",
                    "P+D-UM-P",
                    "P+D-UM-F",
                    "P+D-UM-F-P",
                    "P+PRO",
                    "P+OUTRO",
                    "P+OUTRO-P",
                    "P+OUTRO-F",
                    "P+OUTRO-F-P",
                    "P+Q",
                    "P+Q-P",
                    "P+Q-F",
                    "P+Q-F-P",
                    "P+WPRO",
                    "P+DEM",
                    "P+ADV",
                    "P+WADV",
                    "P+CL",
                    "P+NPR"
                  ],

    "cardinal": [
                    "NUM",
                    "NUM-F"
                ],
                
    "pontuacao": [
                    ".",
                    ",",
                    "QT",
                    "("
                 ]
}